<?xml version="1.0" encoding="UTF-8"?>
<svg width="15px" height="11px" viewBox="0 0 15 11" version="1.1" xmlns="http://www.w3.org/2000/svg" xmlns:xlink="http://www.w3.org/1999/xlink">
    <g id="Symbols" stroke="none" stroke-width="1" fill-rule="evenodd">
        <g id="Constant/footer" transform="translate(-131.000000, -169.000000)">
            <g id="footer" transform="translate(-7.000000, -116.000000)">
                <path d="M151.5,286.680067 L145.5,291.8332 L139.5,286.672733 L139.5,286.466667 L151.5,286.466667 L151.5,286.680067 Z M139.5,294.533333 L139.5,288.626333 L145.5,293.785333 L151.5,288.6322 L151.5,294.533333 L139.5,294.533333 Z M138,296 L153,296 L153,285 L138,285 L138,296 Z" id="email-[#1573]"></path>
            </g>
        </g>
    </g>
</svg>